(module J5630 (layer F.Cu) (tedit 5E412FB5)
  (fp_text reference REF** (at 4.1 -2.7) (layer F.SilkS)
    (effects (font (size 1 1) (thickness 0.15)))
  )
  (fp_text value J5630 (at 0.1 -4.3) (layer F.Fab)
    (effects (font (size 1 1) (thickness 0.15)))
  )
  (fp_line (start -1.5 -3.3) (end 1.5 -3.3) (layer F.CrtYd) (width 0.12))
  (fp_line (start 1.5 -3.3) (end 1.5 3.3) (layer F.CrtYd) (width 0.12))
  (fp_line (start 1.5 3.3) (end -1.5 3.3) (layer F.CrtYd) (width 0.12))
  (fp_line (start -1.5 3.3) (end -1.5 -3.3) (layer F.CrtYd) (width 0.12))
  (fp_line (start 1.4 -3.1) (end 1.4 3.1) (layer F.SilkS) (width 0.12))
  (fp_line (start -1.4 -3.1) (end -1.4 2.8) (layer F.SilkS) (width 0.12))
  (fp_line (start -1.4 2.8) (end -1 3.2) (layer F.SilkS) (width 0.12))
  (pad 2 smd roundrect (at 0 -2.3) (size 2.1 1.68) (layers F.Cu F.Paste F.Mask) (roundrect_rratio 0.25))
  (pad 1 smd roundrect (at 0 1.3) (size 2.1 3.6) (layers F.Cu F.Paste F.Mask) (roundrect_rratio 0.25))
)
