EESchema Schematic File Version 4
LIBS:zeven_segment_8cm-cache
EELAYER 30 0
EELAYER END
$Descr A4 8268 11693 portrait
encoding utf-8
Sheet 1 1
Title "Zeven segment display 8cm"
Date "2020-02-09"
Rev "1"
Comp ""
Comment1 ""
Comment2 ""
Comment3 ""
Comment4 ""
$EndDescr
Wire Wire Line
	5400 1900 5600 1900
Wire Wire Line
	5400 1550 5600 1550
Wire Wire Line
	5400 2600 5600 2600
Wire Wire Line
	5400 2250 5600 2250
Wire Wire Line
	5400 3300 5600 3300
Wire Wire Line
	5400 2950 5600 2950
Wire Wire Line
	5400 4000 5600 4000
Wire Wire Line
	5400 3650 5600 3650
Wire Wire Line
	5400 4700 5600 4700
Wire Wire Line
	5400 4350 5600 4350
Wire Wire Line
	5400 5400 5600 5400
Wire Wire Line
	5400 5050 5600 5050
Wire Wire Line
	5400 6100 5600 6100
Wire Wire Line
	5400 5750 5600 5750
Wire Wire Line
	4350 2300 4900 2300
Wire Wire Line
	4900 2300 4900 1550
Wire Wire Line
	4900 1550 5100 1550
Wire Wire Line
	4350 2400 4950 2400
Wire Wire Line
	4950 2400 4950 1900
Wire Wire Line
	4950 1900 5100 1900
Wire Wire Line
	5100 2250 5000 2250
Wire Wire Line
	5000 2250 5000 2500
Wire Wire Line
	5000 2500 4350 2500
Wire Wire Line
	4350 2700 5000 2700
Wire Wire Line
	5000 2700 5000 2950
Wire Wire Line
	5000 2950 5100 2950
Wire Wire Line
	4350 2800 4950 2800
Wire Wire Line
	4950 2800 4950 3300
Wire Wire Line
	4950 3300 5100 3300
Wire Wire Line
	4350 2900 4900 2900
Wire Wire Line
	4900 2900 4900 3650
Wire Wire Line
	4900 3650 5100 3650
Wire Wire Line
	5100 4000 4850 4000
Wire Wire Line
	4850 4000 4850 3000
Wire Wire Line
	4850 3000 4350 3000
Wire Wire Line
	4350 3100 4800 3100
Wire Wire Line
	4800 3100 4800 4350
Wire Wire Line
	4800 4350 5100 4350
Wire Wire Line
	5100 4700 4750 4700
Wire Wire Line
	4750 4700 4750 3200
Wire Wire Line
	4750 3200 4350 3200
Wire Wire Line
	4350 3300 4700 3300
Wire Wire Line
	4700 3300 4700 5050
Wire Wire Line
	4700 5050 5100 5050
Wire Wire Line
	4350 3400 4650 3400
Wire Wire Line
	4650 3400 4650 5400
Wire Wire Line
	4650 5400 5100 5400
Wire Wire Line
	5100 5750 4600 5750
Wire Wire Line
	4600 5750 4600 3500
Wire Wire Line
	4600 3500 4350 3500
Wire Wire Line
	4350 3600 4550 3600
Wire Wire Line
	4550 3600 4550 6100
Wire Wire Line
	4550 6100 5100 6100
Wire Wire Line
	5900 6100 6000 6100
Wire Wire Line
	6000 6100 6000 5750
Wire Wire Line
	6000 1550 5900 1550
Wire Wire Line
	5900 1900 6000 1900
Connection ~ 6000 1900
Wire Wire Line
	6000 1900 6000 1550
Wire Wire Line
	5900 2250 6000 2250
Connection ~ 6000 2250
Wire Wire Line
	6000 2250 6000 1900
Wire Wire Line
	5900 2600 6000 2600
Connection ~ 6000 2600
Wire Wire Line
	6000 2600 6000 2250
Wire Wire Line
	5900 2950 6000 2950
Connection ~ 6000 2950
Wire Wire Line
	6000 2950 6000 2600
Wire Wire Line
	5900 3300 6000 3300
Connection ~ 6000 3300
Wire Wire Line
	6000 3300 6000 2950
Wire Wire Line
	5900 3650 6000 3650
Connection ~ 6000 3650
Wire Wire Line
	6000 3650 6000 3300
Wire Wire Line
	5900 4000 6000 4000
Connection ~ 6000 4000
Wire Wire Line
	6000 4000 6000 3650
Wire Wire Line
	5900 4350 6000 4350
Connection ~ 6000 4350
Wire Wire Line
	6000 4350 6000 4000
Wire Wire Line
	5900 4700 6000 4700
Connection ~ 6000 4700
Wire Wire Line
	6000 4700 6000 4350
Wire Wire Line
	5900 5050 6000 5050
Connection ~ 6000 5050
Wire Wire Line
	6000 5050 6000 4700
Wire Wire Line
	5900 5400 6000 5400
Connection ~ 6000 5400
Wire Wire Line
	6000 5400 6000 5050
Wire Wire Line
	5900 5750 6000 5750
Connection ~ 6000 5750
Wire Wire Line
	6000 5750 6000 5400
Wire Wire Line
	4350 4600 4350 4000
NoConn ~ 4350 3700
NoConn ~ 4350 3800
Text Notes 1400 1900 0    50   ~ 0
!OE
Text Notes 1400 1800 0    50   ~ 0
LATCH
Text Notes 1400 1700 0    50   ~ 0
CLK
Text Notes 1400 1600 0    50   ~ 0
SDI
Wire Wire Line
	1950 1500 2100 1500
Text Notes 1400 1500 0    50   ~ 0
6V5
Wire Wire Line
	1950 1700 2800 1700
Wire Wire Line
	1950 1800 2700 1800
Wire Wire Line
	1950 1900 2600 1900
$Comp
L power:+3.3V #PWR02
U 1 1 5E7F2501
P 3950 2100
F 0 "#PWR02" H 3950 1950 50  0001 C CNN
F 1 "+3.3V" H 3965 2273 50  0000 C CNN
F 2 "" H 3950 2100 50  0001 C CNN
F 3 "" H 3950 2100 50  0001 C CNN
	1    3950 2100
	1    0    0    -1  
$EndComp
$Comp
L power:PWR_FLAG #FLG01
U 1 1 5E7F3C62
P 2100 1500
F 0 "#FLG01" H 2100 1575 50  0001 C CNN
F 1 "PWR_FLAG" V 2100 1600 50  0000 L CNN
F 2 "" H 2100 1500 50  0001 C CNN
F 3 "~" H 2100 1500 50  0001 C CNN
	1    2100 1500
	0    1    1    0   
$EndComp
$Comp
L power:PWR_FLAG #FLG02
U 1 1 5E7F423F
P 2100 2000
F 0 "#FLG02" H 2100 2075 50  0001 C CNN
F 1 "PWR_FLAG" V 2100 2100 50  0000 L CNN
F 2 "" H 2100 2000 50  0001 C CNN
F 3 "~" H 2100 2000 50  0001 C CNN
	1    2100 2000
	0    1    1    0   
$EndComp
$Comp
L Device:C C2
U 1 1 5E803F8B
P 2800 5550
F 0 "C2" H 2915 5596 50  0000 L CNN
F 1 "100n" H 2915 5505 50  0000 L CNN
F 2 "Capacitor_SMD:C_0805_2012Metric_Pad1.15x1.40mm_HandSolder" H 2838 5400 50  0001 C CNN
F 3 "~" H 2800 5550 50  0001 C CNN
	1    2800 5550
	1    0    0    -1  
$EndComp
$Comp
L Device:C C1
U 1 1 5E804A8B
P 1900 5550
F 0 "C1" H 2015 5596 50  0000 L CNN
F 1 "100n" H 2015 5505 50  0000 L CNN
F 2 "Capacitor_SMD:C_0805_2012Metric_Pad1.15x1.40mm_HandSolder" H 1938 5400 50  0001 C CNN
F 3 "~" H 1900 5550 50  0001 C CNN
	1    1900 5550
	1    0    0    -1  
$EndComp
Wire Wire Line
	2350 5600 2350 5700
Wire Wire Line
	2050 5300 1900 5300
Wire Wire Line
	1900 5300 1900 5400
Wire Wire Line
	1900 5300 1900 4850
Connection ~ 1900 5300
Wire Wire Line
	2650 5300 2800 5300
Wire Wire Line
	2800 5300 2800 5400
Wire Wire Line
	2800 5300 3300 5300
Connection ~ 2800 5300
$Comp
L power:+3.3V #PWR06
U 1 1 5E845EF3
P 3300 5300
F 0 "#PWR06" H 3300 5150 50  0001 C CNN
F 1 "+3.3V" H 3315 5473 50  0000 C CNN
F 2 "" H 3300 5300 50  0001 C CNN
F 3 "" H 3300 5300 50  0001 C CNN
	1    3300 5300
	1    0    0    -1  
$EndComp
Text Label 1900 4850 0    50   ~ 0
6V5
$Comp
L Device:R R1
U 1 1 5E856CC7
P 3400 2900
F 0 "R1" H 3470 2946 50  0000 L CNN
F 1 "1k" H 3470 2855 50  0000 L CNN
F 2 "Resistor_SMD:R_0805_2012Metric_Pad1.15x1.40mm_HandSolder" V 3330 2900 50  0001 C CNN
F 3 "~" H 3400 2900 50  0001 C CNN
	1    3400 2900
	1    0    0    -1  
$EndComp
Wire Wire Line
	3550 2700 3400 2700
Wire Wire Line
	3400 2700 3400 2750
$Comp
L Regulator_Linear:APE8865N-33-HF-3 U2
U 1 1 5E43C3A4
P 2350 5300
F 0 "U2" H 2350 5542 50  0000 C CNN
F 1 "APE8865N-33-HF-3" H 2350 5451 50  0000 C CNN
F 2 "Package_TO_SOT_SMD:SOT-23" H 2350 5525 50  0001 C CIN
F 3 "http://www.tme.eu/fr/Document/ced3461ed31ea70a3c416fb648e0cde7/APE8865-3.pdf" H 2350 5300 50  0001 C CNN
	1    2350 5300
	1    0    0    -1  
$EndComp
Text Notes 1500 3100 0    50   ~ 0
6V5
Text Notes 1500 3300 0    50   ~ 0
CLK
Text Notes 1500 3400 0    50   ~ 0
LATCH
Text Notes 1500 3500 0    50   ~ 0
!OE
Text Notes 1500 3200 0    50   ~ 0
SDO
Wire Wire Line
	1950 3600 2050 3600
Text Label 2000 1500 0    50   ~ 0
6V5
Text Label 1950 3100 0    50   ~ 0
6V5
Wire Wire Line
	2600 1900 2600 2600
Wire Wire Line
	2700 1800 2700 2500
Wire Wire Line
	2700 3400 1950 3400
Wire Wire Line
	2800 1700 2800 2400
Wire Wire Line
	2800 3300 1950 3300
Wire Wire Line
	3350 1600 3350 2300
Wire Wire Line
	3350 2300 3550 2300
Wire Wire Line
	1950 1600 3100 1600
Wire Wire Line
	3550 2400 2800 2400
Connection ~ 2800 2400
Wire Wire Line
	2800 2400 2800 3300
Wire Wire Line
	3550 2500 2700 2500
Connection ~ 2700 2500
Wire Wire Line
	2700 2500 2700 3400
Wire Wire Line
	3550 3300 3200 3300
Wire Wire Line
	3200 3300 3200 2600
Wire Wire Line
	3200 2600 2600 2600
Connection ~ 2600 2600
Wire Wire Line
	2600 2600 2600 3500
Wire Wire Line
	4350 4600 2900 4600
Wire Wire Line
	2900 4600 2900 3200
Wire Wire Line
	2900 3200 1950 3200
Text Label 5950 1550 0    50   ~ 0
6V5
Text Notes 1500 3600 0    50   ~ 0
GND
Text Notes 1400 2000 0    50   ~ 0
GND
$Comp
L Connector:Conn_01x06_Male J1
U 1 1 5E46ED77
P 1750 1700
F 0 "J1" H 1850 2050 50  0000 C CNN
F 1 "INPUT" H 2050 2050 50  0000 C CNN
F 2 "Connector_PinHeader_2.54mm:PinHeader_1x06_P2.54mm_Horizontal" H 1750 1700 50  0001 C CNN
F 3 "~" H 1750 1700 50  0001 C CNN
	1    1750 1700
	1    0    0    -1  
$EndComp
$Comp
L Connector:Conn_01x06_Female J2
U 1 1 5E495751
P 1750 3300
F 0 "J2" H 1700 3650 50  0000 C CNN
F 1 "OUTPUT" H 1400 3650 50  0000 C CNN
F 2 "Connector_PinSocket_2.54mm:PinSocket_1x06_P2.54mm_Horizontal" H 1750 3300 50  0001 C CNN
F 3 "~" H 1750 3300 50  0001 C CNN
	1    1750 3300
	-1   0    0    -1  
$EndComp
$Comp
L Mechanical:MountingHole H1
U 1 1 5E4AB043
P 750 7050
F 0 "H1" H 850 7096 50  0000 L CNN
F 1 "MountingHole" H 850 7005 50  0000 L CNN
F 2 "MountingHole:MountingHole_3.2mm_M3" H 750 7050 50  0001 C CNN
F 3 "~" H 750 7050 50  0001 C CNN
	1    750  7050
	1    0    0    -1  
$EndComp
$Comp
L Mechanical:MountingHole H2
U 1 1 5E4AB092
P 750 7300
F 0 "H2" H 850 7346 50  0000 L CNN
F 1 "MountingHole" H 850 7255 50  0000 L CNN
F 2 "MountingHole:MountingHole_3.2mm_M3" H 750 7300 50  0001 C CNN
F 3 "~" H 750 7300 50  0001 C CNN
	1    750  7300
	1    0    0    -1  
$EndComp
$Comp
L Mechanical:MountingHole H3
U 1 1 5E4AB389
P 750 7550
F 0 "H3" H 850 7596 50  0000 L CNN
F 1 "MountingHole" H 850 7505 50  0000 L CNN
F 2 "MountingHole:MountingHole_3.2mm_M3" H 750 7550 50  0001 C CNN
F 3 "~" H 750 7550 50  0001 C CNN
	1    750  7550
	1    0    0    -1  
$EndComp
$Comp
L zeven_segment_8cm-rescue:J5630-ZZZ_symbols D1
U 1 1 5E439A2B
P 5250 1550
F 0 "D1" V 5025 1550 50  0000 C CNN
F 1 "J5630" V 5116 1550 50  0000 C CNN
F 2 "ZZZ_footprints:J5630" H 5790 1310 50  0001 C CNN
F 3 "" H 5250 1580 50  0001 C CNN
	1    5250 1550
	0    1    1    0   
$EndComp
$Comp
L zeven_segment_8cm-rescue:J5630-ZZZ_symbols D2
U 1 1 5E43A5C5
P 5750 1550
F 0 "D2" V 5525 1550 50  0000 C CNN
F 1 "J5630" V 5616 1550 50  0000 C CNN
F 2 "ZZZ_footprints:J5630" H 6290 1310 50  0001 C CNN
F 3 "" H 5750 1580 50  0001 C CNN
	1    5750 1550
	0    1    1    0   
$EndComp
$Comp
L zeven_segment_8cm-rescue:J5630-ZZZ_symbols D3
U 1 1 5E43B5EA
P 5250 1900
F 0 "D3" V 5025 1900 50  0000 C CNN
F 1 "J5630" V 5116 1900 50  0000 C CNN
F 2 "ZZZ_footprints:J5630" H 5790 1660 50  0001 C CNN
F 3 "" H 5250 1930 50  0001 C CNN
	1    5250 1900
	0    1    1    0   
$EndComp
$Comp
L zeven_segment_8cm-rescue:J5630-ZZZ_symbols D4
U 1 1 5E43BB91
P 5750 1900
F 0 "D4" V 5525 1900 50  0000 C CNN
F 1 "J5630" V 5616 1900 50  0000 C CNN
F 2 "ZZZ_footprints:J5630" H 6290 1660 50  0001 C CNN
F 3 "" H 5750 1930 50  0001 C CNN
	1    5750 1900
	0    1    1    0   
$EndComp
$Comp
L zeven_segment_8cm-rescue:J5630-ZZZ_symbols D5
U 1 1 5E43C0EF
P 5250 2250
F 0 "D5" V 5025 2250 50  0000 C CNN
F 1 "J5630" V 5116 2250 50  0000 C CNN
F 2 "ZZZ_footprints:J5630" H 5790 2010 50  0001 C CNN
F 3 "" H 5250 2280 50  0001 C CNN
	1    5250 2250
	0    1    1    0   
$EndComp
$Comp
L zeven_segment_8cm-rescue:J5630-ZZZ_symbols D7
U 1 1 5E43C5F8
P 5250 2600
F 0 "D7" V 5025 2600 50  0000 C CNN
F 1 "J5630" V 5116 2600 50  0000 C CNN
F 2 "ZZZ_footprints:J5630" H 5790 2360 50  0001 C CNN
F 3 "" H 5250 2630 50  0001 C CNN
	1    5250 2600
	0    1    1    0   
$EndComp
Wire Wire Line
	4350 2600 5100 2600
$Comp
L zeven_segment_8cm-rescue:J5630-ZZZ_symbols D6
U 1 1 5E43CCF1
P 5750 2250
F 0 "D6" V 5525 2250 50  0000 C CNN
F 1 "J5630" V 5616 2250 50  0000 C CNN
F 2 "ZZZ_footprints:J5630" H 6290 2010 50  0001 C CNN
F 3 "" H 5750 2280 50  0001 C CNN
	1    5750 2250
	0    1    1    0   
$EndComp
$Comp
L zeven_segment_8cm-rescue:J5630-ZZZ_symbols D8
U 1 1 5E43D3D8
P 5750 2600
F 0 "D8" V 5525 2600 50  0000 C CNN
F 1 "J5630" V 5616 2600 50  0000 C CNN
F 2 "ZZZ_footprints:J5630" H 6290 2360 50  0001 C CNN
F 3 "" H 5750 2630 50  0001 C CNN
	1    5750 2600
	0    1    1    0   
$EndComp
$Comp
L zeven_segment_8cm-rescue:J5630-ZZZ_symbols D10
U 1 1 5E43DA3E
P 5750 2950
F 0 "D10" V 5525 2950 50  0000 C CNN
F 1 "J5630" V 5616 2950 50  0000 C CNN
F 2 "ZZZ_footprints:J5630" H 6290 2710 50  0001 C CNN
F 3 "" H 5750 2980 50  0001 C CNN
	1    5750 2950
	0    1    1    0   
$EndComp
$Comp
L zeven_segment_8cm-rescue:J5630-ZZZ_symbols D9
U 1 1 5E43E029
P 5250 2950
F 0 "D9" V 5025 2950 50  0000 C CNN
F 1 "J5630" V 5116 2950 50  0000 C CNN
F 2 "ZZZ_footprints:J5630" H 5790 2710 50  0001 C CNN
F 3 "" H 5250 2980 50  0001 C CNN
	1    5250 2950
	0    1    1    0   
$EndComp
$Comp
L zeven_segment_8cm-rescue:J5630-ZZZ_symbols D11
U 1 1 5E43E534
P 5250 3300
F 0 "D11" V 5025 3300 50  0000 C CNN
F 1 "J5630" V 5116 3300 50  0000 C CNN
F 2 "ZZZ_footprints:J5630" H 5790 3060 50  0001 C CNN
F 3 "" H 5250 3330 50  0001 C CNN
	1    5250 3300
	0    1    1    0   
$EndComp
$Comp
L zeven_segment_8cm-rescue:J5630-ZZZ_symbols D13
U 1 1 5E43EC1B
P 5250 3650
F 0 "D13" V 5025 3650 50  0000 C CNN
F 1 "J5630" V 5116 3650 50  0000 C CNN
F 2 "ZZZ_footprints:J5630" H 5790 3410 50  0001 C CNN
F 3 "" H 5250 3680 50  0001 C CNN
	1    5250 3650
	0    1    1    0   
$EndComp
$Comp
L zeven_segment_8cm-rescue:J5630-ZZZ_symbols D15
U 1 1 5E43F2DC
P 5250 4000
F 0 "D15" V 5025 4000 50  0000 C CNN
F 1 "J5630" V 5116 4000 50  0000 C CNN
F 2 "ZZZ_footprints:J5630" H 5790 3760 50  0001 C CNN
F 3 "" H 5250 4030 50  0001 C CNN
	1    5250 4000
	0    1    1    0   
$EndComp
$Comp
L zeven_segment_8cm-rescue:J5630-ZZZ_symbols D12
U 1 1 5E43F887
P 5750 3300
F 0 "D12" V 5525 3300 50  0000 C CNN
F 1 "J5630" V 5616 3300 50  0000 C CNN
F 2 "ZZZ_footprints:J5630" H 6290 3060 50  0001 C CNN
F 3 "" H 5750 3330 50  0001 C CNN
	1    5750 3300
	0    1    1    0   
$EndComp
$Comp
L zeven_segment_8cm-rescue:J5630-ZZZ_symbols D14
U 1 1 5E440123
P 5750 3650
F 0 "D14" V 5525 3650 50  0000 C CNN
F 1 "J5630" V 5616 3650 50  0000 C CNN
F 2 "ZZZ_footprints:J5630" H 6290 3410 50  0001 C CNN
F 3 "" H 5750 3680 50  0001 C CNN
	1    5750 3650
	0    1    1    0   
$EndComp
$Comp
L zeven_segment_8cm-rescue:J5630-ZZZ_symbols D16
U 1 1 5E440817
P 5750 4000
F 0 "D16" V 5525 4000 50  0000 C CNN
F 1 "J5630" V 5616 4000 50  0000 C CNN
F 2 "ZZZ_footprints:J5630" H 6290 3760 50  0001 C CNN
F 3 "" H 5750 4030 50  0001 C CNN
	1    5750 4000
	0    1    1    0   
$EndComp
$Comp
L zeven_segment_8cm-rescue:J5630-ZZZ_symbols D17
U 1 1 5E440EBE
P 5250 4350
F 0 "D17" V 5025 4350 50  0000 C CNN
F 1 "J5630" V 5116 4350 50  0000 C CNN
F 2 "ZZZ_footprints:J5630" H 5790 4110 50  0001 C CNN
F 3 "" H 5250 4380 50  0001 C CNN
	1    5250 4350
	0    1    1    0   
$EndComp
$Comp
L zeven_segment_8cm-rescue:J5630-ZZZ_symbols D19
U 1 1 5E441414
P 5250 4700
F 0 "D19" V 5025 4700 50  0000 C CNN
F 1 "J5630" V 5116 4700 50  0000 C CNN
F 2 "ZZZ_footprints:J5630" H 5790 4460 50  0001 C CNN
F 3 "" H 5250 4730 50  0001 C CNN
	1    5250 4700
	0    1    1    0   
$EndComp
$Comp
L zeven_segment_8cm-rescue:J5630-ZZZ_symbols D21
U 1 1 5E4419D9
P 5250 5050
F 0 "D21" V 5025 5050 50  0000 C CNN
F 1 "J5630" V 5116 5050 50  0000 C CNN
F 2 "ZZZ_footprints:J5630" H 5790 4810 50  0001 C CNN
F 3 "" H 5250 5080 50  0001 C CNN
	1    5250 5050
	0    1    1    0   
$EndComp
$Comp
L zeven_segment_8cm-rescue:J5630-ZZZ_symbols D23
U 1 1 5E441EF1
P 5250 5400
F 0 "D23" V 5025 5400 50  0000 C CNN
F 1 "J5630" V 5116 5400 50  0000 C CNN
F 2 "ZZZ_footprints:J5630" H 5790 5160 50  0001 C CNN
F 3 "" H 5250 5430 50  0001 C CNN
	1    5250 5400
	0    1    1    0   
$EndComp
$Comp
L zeven_segment_8cm-rescue:J5630-ZZZ_symbols D25
U 1 1 5E4422F7
P 5250 5750
F 0 "D25" V 5025 5750 50  0000 C CNN
F 1 "J5630" V 5116 5750 50  0000 C CNN
F 2 "ZZZ_footprints:J5630" H 5790 5510 50  0001 C CNN
F 3 "" H 5250 5780 50  0001 C CNN
	1    5250 5750
	0    1    1    0   
$EndComp
$Comp
L zeven_segment_8cm-rescue:J5630-ZZZ_symbols D18
U 1 1 5E4427BB
P 5750 4350
F 0 "D18" V 5525 4350 50  0000 C CNN
F 1 "J5630" V 5616 4350 50  0000 C CNN
F 2 "ZZZ_footprints:J5630" H 6290 4110 50  0001 C CNN
F 3 "" H 5750 4380 50  0001 C CNN
	1    5750 4350
	0    1    1    0   
$EndComp
$Comp
L zeven_segment_8cm-rescue:J5630-ZZZ_symbols D20
U 1 1 5E442DBF
P 5750 4700
F 0 "D20" V 5525 4700 50  0000 C CNN
F 1 "J5630" V 5616 4700 50  0000 C CNN
F 2 "ZZZ_footprints:J5630" H 6290 4460 50  0001 C CNN
F 3 "" H 5750 4730 50  0001 C CNN
	1    5750 4700
	0    1    1    0   
$EndComp
$Comp
L zeven_segment_8cm-rescue:J5630-ZZZ_symbols D22
U 1 1 5E443338
P 5750 5050
F 0 "D22" V 5525 5050 50  0000 C CNN
F 1 "J5630" V 5616 5050 50  0000 C CNN
F 2 "ZZZ_footprints:J5630" H 6290 4810 50  0001 C CNN
F 3 "" H 5750 5080 50  0001 C CNN
	1    5750 5050
	0    1    1    0   
$EndComp
$Comp
L zeven_segment_8cm-rescue:J5630-ZZZ_symbols D24
U 1 1 5E4437D2
P 5750 5400
F 0 "D24" V 5525 5400 50  0000 C CNN
F 1 "J5630" V 5616 5400 50  0000 C CNN
F 2 "ZZZ_footprints:J5630" H 6290 5160 50  0001 C CNN
F 3 "" H 5750 5430 50  0001 C CNN
	1    5750 5400
	0    1    1    0   
$EndComp
$Comp
L zeven_segment_8cm-rescue:J5630-ZZZ_symbols D26
U 1 1 5E443D32
P 5750 5750
F 0 "D26" V 5525 5750 50  0000 C CNN
F 1 "J5630" V 5616 5750 50  0000 C CNN
F 2 "ZZZ_footprints:J5630" H 6290 5510 50  0001 C CNN
F 3 "" H 5750 5780 50  0001 C CNN
	1    5750 5750
	0    1    1    0   
$EndComp
$Comp
L zeven_segment_8cm-rescue:J5630-ZZZ_symbols D27
U 1 1 5E4442C5
P 5250 6100
F 0 "D27" V 5025 6100 50  0000 C CNN
F 1 "J5630" V 5116 6100 50  0000 C CNN
F 2 "ZZZ_footprints:J5630" H 5790 5860 50  0001 C CNN
F 3 "" H 5250 6130 50  0001 C CNN
	1    5250 6100
	0    1    1    0   
$EndComp
$Comp
L zeven_segment_8cm-rescue:J5630-ZZZ_symbols D28
U 1 1 5E4448B2
P 5750 6100
F 0 "D28" V 5525 6100 50  0000 C CNN
F 1 "J5630" V 5616 6100 50  0000 C CNN
F 2 "ZZZ_footprints:J5630" H 6290 5860 50  0001 C CNN
F 3 "" H 5750 6130 50  0001 C CNN
	1    5750 6100
	0    1    1    0   
$EndComp
$Comp
L Device:R R2
U 1 1 5E42BE47
P 3100 1750
F 0 "R2" H 3170 1796 50  0000 L CNN
F 1 "100k" H 3170 1705 50  0000 L CNN
F 2 "Resistor_SMD:R_0805_2012Metric_Pad1.15x1.40mm_HandSolder" V 3030 1750 50  0001 C CNN
F 3 "~" H 3100 1750 50  0001 C CNN
	1    3100 1750
	1    0    0    -1  
$EndComp
Connection ~ 3100 1600
Wire Wire Line
	3100 1600 3350 1600
$Comp
L power:GNDD #PWR0101
U 1 1 5FFDFE39
P 2050 3600
F 0 "#PWR0101" H 2050 3350 50  0001 C CNN
F 1 "GNDD" H 2054 3445 50  0001 C CNN
F 2 "" H 2050 3600 50  0001 C CNN
F 3 "" H 2050 3600 50  0001 C CNN
	1    2050 3600
	1    0    0    -1  
$EndComp
$Comp
L power:GNDD #PWR0102
U 1 1 5FFE119D
P 1900 5700
F 0 "#PWR0102" H 1900 5450 50  0001 C CNN
F 1 "GNDD" H 1904 5545 50  0001 C CNN
F 2 "" H 1900 5700 50  0001 C CNN
F 3 "" H 1900 5700 50  0001 C CNN
	1    1900 5700
	1    0    0    -1  
$EndComp
$Comp
L power:GNDD #PWR0103
U 1 1 5FFE156F
P 2350 5700
F 0 "#PWR0103" H 2350 5450 50  0001 C CNN
F 1 "GNDD" H 2354 5545 50  0001 C CNN
F 2 "" H 2350 5700 50  0001 C CNN
F 3 "" H 2350 5700 50  0001 C CNN
	1    2350 5700
	1    0    0    -1  
$EndComp
$Comp
L power:GNDD #PWR0104
U 1 1 5FFE175B
P 2800 5700
F 0 "#PWR0104" H 2800 5450 50  0001 C CNN
F 1 "GNDD" H 2804 5545 50  0001 C CNN
F 2 "" H 2800 5700 50  0001 C CNN
F 3 "" H 2800 5700 50  0001 C CNN
	1    2800 5700
	1    0    0    -1  
$EndComp
$Comp
L power:GNDD #PWR0105
U 1 1 5FFE1954
P 3950 4300
F 0 "#PWR0105" H 3950 4050 50  0001 C CNN
F 1 "GNDD" H 3954 4145 50  0001 C CNN
F 2 "" H 3950 4300 50  0001 C CNN
F 3 "" H 3950 4300 50  0001 C CNN
	1    3950 4300
	1    0    0    -1  
$EndComp
$Comp
L power:GNDD #PWR0106
U 1 1 5FFE1C5C
P 3100 1900
F 0 "#PWR0106" H 3100 1650 50  0001 C CNN
F 1 "GNDD" H 3104 1745 50  0001 C CNN
F 2 "" H 3100 1900 50  0001 C CNN
F 3 "" H 3100 1900 50  0001 C CNN
	1    3100 1900
	1    0    0    -1  
$EndComp
$Comp
L power:GNDD #PWR0107
U 1 1 5FFE1FE7
P 3400 3050
F 0 "#PWR0107" H 3400 2800 50  0001 C CNN
F 1 "GNDD" H 3404 2895 50  0001 C CNN
F 2 "" H 3400 3050 50  0001 C CNN
F 3 "" H 3400 3050 50  0001 C CNN
	1    3400 3050
	1    0    0    -1  
$EndComp
Wire Wire Line
	1950 2000 2100 2000
$Comp
L power:GNDD #PWR0108
U 1 1 5FFE2304
P 1950 2000
F 0 "#PWR0108" H 1950 1750 50  0001 C CNN
F 1 "GNDD" H 1954 1845 50  0001 C CNN
F 2 "" H 1950 2000 50  0001 C CNN
F 3 "" H 1950 2000 50  0001 C CNN
	1    1950 2000
	1    0    0    -1  
$EndComp
Connection ~ 1950 2000
Connection ~ 2800 3300
Connection ~ 2700 3400
$Comp
L power:GNDD #PWR0109
U 1 1 5FFE0BCC
P 2800 3600
F 0 "#PWR0109" H 2800 3350 50  0001 C CNN
F 1 "GNDD" H 2804 3445 50  0001 C CNN
F 2 "" H 2800 3600 50  0001 C CNN
F 3 "" H 2800 3600 50  0001 C CNN
	1    2800 3600
	1    0    0    -1  
$EndComp
$Comp
L Device:R R3
U 1 1 5E42C5C5
P 2800 3450
F 0 "R3" H 2900 3500 50  0000 L CNN
F 1 "100k" H 3050 3500 50  0000 L CNN
F 2 "Resistor_SMD:R_0805_2012Metric_Pad1.15x1.40mm_HandSolder" V 2730 3450 50  0001 C CNN
F 3 "~" H 2800 3450 50  0001 C CNN
	1    2800 3450
	1    0    0    -1  
$EndComp
$Comp
L power:GNDD #PWR0110
U 1 1 5FFE09BC
P 2700 3700
F 0 "#PWR0110" H 2700 3450 50  0001 C CNN
F 1 "GNDD" H 2704 3545 50  0001 C CNN
F 2 "" H 2700 3700 50  0001 C CNN
F 3 "" H 2700 3700 50  0001 C CNN
	1    2700 3700
	1    0    0    -1  
$EndComp
Connection ~ 2600 3500
$Comp
L Device:R R4
U 1 1 5E42D029
P 2700 3550
F 0 "R4" H 2900 3550 50  0000 L CNN
F 1 "100k" H 3050 3550 50  0000 L CNN
F 2 "Resistor_SMD:R_0805_2012Metric_Pad1.15x1.40mm_HandSolder" V 2630 3550 50  0001 C CNN
F 3 "~" H 2700 3550 50  0001 C CNN
	1    2700 3550
	1    0    0    -1  
$EndComp
$Comp
L power:GNDD #PWR0111
U 1 1 5FFE0714
P 2600 3800
F 0 "#PWR0111" H 2600 3550 50  0001 C CNN
F 1 "GNDD" H 2604 3645 50  0001 C CNN
F 2 "" H 2600 3800 50  0001 C CNN
F 3 "" H 2600 3800 50  0001 C CNN
	1    2600 3800
	1    0    0    -1  
$EndComp
Wire Wire Line
	2600 3500 1950 3500
$Comp
L Device:R R5
U 1 1 5E42D365
P 2600 3650
F 0 "R5" H 2900 3600 50  0000 L CNN
F 1 "100k" H 3050 3600 50  0000 L CNN
F 2 "Resistor_SMD:R_0805_2012Metric_Pad1.15x1.40mm_HandSolder" V 2530 3650 50  0001 C CNN
F 3 "~" H 2600 3650 50  0001 C CNN
	1    2600 3650
	1    0    0    -1  
$EndComp
$Comp
L Driver_LED:STP16CP05 U1
U 1 1 5E0816A8
P 3950 3200
F 0 "U1" H 3500 2400 50  0000 C CNN
F 1 "STP16CP05" H 3400 2300 50  0000 C CNN
F 2 "Package_SO:TSSOP-24_4.4x7.8mm_P0.65mm" H 3950 3200 50  0001 C CNN
F 3 "https://www.st.com/resource/en/datasheet/stp16cp05.pdf" H 3950 3200 50  0001 C CNN
	1    3950 3200
	1    0    0    -1  
$EndComp
$EndSCHEMATC
